[gd_scene load_steps=4 format=1]

[ext_resource path="res://game/entity/object/bullet.gd" type="Script" id=1]
[ext_resource path="res://asset/entity/bullet.png" type="Texture" id=2]

[sub_resource type="RectangleShape2D" id=1]

custom_solver_bias = 0.0
extents = Vector2( 10, 13.1587 )

[node name="bullet" type="KinematicBody2D" groups=[
"bullet",
]]

z/z = 5
input/pickable = false
shapes/0/shape = SubResource( 1 )
shapes/0/transform = Matrix32( 0.161523, 0, 0, 0.409299, 0.145221, -16.59 )
shapes/0/trigger = false
collision/layers = 3
collision/mask = 3
collision/margin = 0.08
script/script = ExtResource( 1 )

[node name="bullet" type="Sprite" parent="."]

transform/pos = Vector2( -0.45401, -9.87472 )
transform/rot = 90.0
transform/scale = Vector2( 1.5, 1.5 )
texture = ExtResource( 2 )

[node name="CollisionShape2D" type="CollisionShape2D" parent="."]

transform/pos = Vector2( 0.145221, -16.59 )
transform/scale = Vector2( 0.161523, 0.409299 )
shape = SubResource( 1 )
trigger = false
_update_shape_index = 0


