[gd_scene load_steps=14 format=1]

[ext_resource path="res://asset/level/waterbig1.png" type="Texture" id=1]
[ext_resource path="res://game/level/tileset_1.tres" type="TileSet" id=2]
[ext_resource path="res://game/level/tileset_2.tres" type="TileSet" id=3]
[ext_resource path="res://game/entity/player/player-spawn.tscn" type="PackedScene" id=4]
[ext_resource path="res://asset/level/decoration/forestbig.png" type="Texture" id=5]
[ext_resource path="res://asset/level/decoration/mountain1.png" type="Texture" id=6]
[ext_resource path="res://asset/level/decoration/forestsmall.png" type="Texture" id=7]
[ext_resource path="res://asset/level/decoration/mountain2.png" type="Texture" id=8]
[ext_resource path="res://asset/level/decoration/mountain3.png" type="Texture" id=9]
[ext_resource path="res://game/entity/enemy/ship.tscn" type="PackedScene" id=10]
[ext_resource path="res://game/entity/enemy/helicopter.tscn" type="PackedScene" id=11]
[ext_resource path="res://game/entity/object/bridge.tscn" type="PackedScene" id=12]
[ext_resource path="res://game/entity/object/fuel.tscn" type="PackedScene" id=13]

[node name="level001" type="Node2D"]

transform/pos = Vector2( -291, -129 )

[node name="0-background" type="Sprite" parent="."]

texture = ExtResource( 1 )
centered = false
offset = Vector2( 0, -4352 )
region = true
region_rect = Rect2( 0, 0, 1920, 5440 )

[node name="1-ground1" type="TileMap" parent="."]

transform/pos = Vector2( -1, 0 )
mode = 0
tile_set = ExtResource( 2 )
cell/size = Vector2( 64, 64 )
cell/quadrant_size = 16
cell/custom_transform = Matrix32( 1, 0, 0, 1, 0, 0 )
cell/half_offset = 2
cell/tile_origin = 0
cell/y_sort = false
collision/use_kinematic = false
collision/friction = 1.0
collision/bounce = 0.0
collision/layers = 1
collision/mask = 1
occluder/light_mask = 1
tile_data = IntArray( -4456448, 1610612747, -4456447, 1610612747, -4456446, 1610612747, -4456445, 1610612747, -4456444, 1610612747, -4456443, 1610612747, -4456442, 1610612747, -4456441, 1610612747, -4456440, 1610612747, -4456439, 1610612747, -4456438, 1610612747, -4456437, 1610612747, -4456436, 1610612748, -4456432, 12, -4456431, -1073741813, -4456430, 1610612747, -4456429, 1610612747, -4456428, 1610612747, -4456427, 1610612747, -4456426, 1610612747, -4456425, 1610612747, -4456424, 1610612747, -4456423, 1610612747, -4456422, 1610612747, -4456421, 1610612747, -4456420, 1610612747, -4456419, 1610612747, -4390912, 1610612747, -4390911, -1073741813, -4390910, -1073741813, -4390909, -1073741813, -4390908, -1073741813, -4390907, -1073741813, -4390906, -1073741813, -4390905, -1073741813, -4390904, -1073741813, -4390903, -1073741813, -4390902, 536870917, -4390901, -1073741816, -4390900, -1073741820, -4390896, 4, -4390895, 5, -4390894, 1073741835, -4390893, 1073741835, -4390892, 1073741835, -4390891, 1073741835, -4390890, 1073741835, -4390889, 1073741835, -4390888, 1073741835, -4390887, -1610612725, -4390886, 1610612747, -4390885, -1610612725, -4390884, -1610612725, -4390883, 1610612747, -4325376, 1610612747, -4325375, -1073741813, -4325374, -1073741813, -4325373, -1073741813, -4325372, -1073741813, -4325371, -1073741813, -4325370, -1073741813, -4325369, -1073741813, -4325368, 11, -4325367, 536870917, -4325366, 536870916, -4325359, 1073741832, -4325358, 1073741835, -4325357, 1073741835, -4325356, 1073741835, -4325355, 1073741835, -4325354, 1073741835, -4325353, 1073741835, -4325352, 1073741835, -4325351, -1610612725, -4325350, 1610612747, -4325349, -1610612725, -4325348, -1610612725, -4325347, 1610612747, -4259840, 1610612747, -4259839, -1073741813, -4259838, -1073741813, -4259837, -1073741813, -4259836, -1073741813, -4259835, -1073741813, -4259834, -1073741813, -4259833, 536870917, -4259832, -536870904, -4259831, -1073741820, -4259823, 4, -4259822, 5, -4259821, 1073741835, -4259820, 1073741835, -4259819, 1073741835, -4259818, 1073741835, -4259817, 1073741835, -4259816, 1073741835, -4259815, -1610612725, -4259814, 1610612747, -4259813, 1610612747, -4259812, -1610612725, -4259811, 1610612747, -4194304, 1610612747, -4194303, -1073741813, -4194302, -1073741813, -4194301, -1073741813, -4194300, -1073741813, -4194299, -1073741813, -4194298, -1073741813, -4194297, 536870920, -4194286, 1073741832, -4194285, 1073741835, -4194284, 1073741835, -4194283, 1073741835, -4194282, 1073741835, -4194281, 1073741835, -4194280, 1073741835, -4194279, -1610612725, -4194278, 1610612747, -4194277, 1610612747, -4194276, -1610612725, -4194275, 1610612747, -4128768, 1610612747, -4128767, -2147483637, -4128766, -2147483637, -4128765, -2147483637, -4128764, -2147483637, -4128763, -2147483637, -4128762, -2147483637, -4128761, 536870920, -4128750, 4, -4128749, 5, -4128748, 1073741835, -4128747, 1073741835, -4128746, 1073741835, -4128745, 1073741835, -4128744, 1073741835, -4128743, -1610612725, -4128742, 1610612747, -4128741, 1610612747, -4128740, -1610612725, -4128739, 1610612747, -4063232, 1610612747, -4063231, -2147483637, -4063230, -2147483637, -4063229, -2147483637, -4063228, -2147483637, -4063227, -2147483637, -4063226, -2147483637, -4063225, 536870920, -4063213, 8, -4063212, 1073741835, -4063211, 1073741835, -4063210, 1073741835, -4063209, 1073741835, -4063208, 1073741835, -4063207, 1610612747, -4063206, 1610612747, -4063205, 1610612747, -4063204, -1610612725, -4063203, 1610612747, -3997696, 1610612747, -3997695, -2147483637, -3997694, -2147483637, -3997693, -2147483637, -3997692, -2147483637, -3997691, -2147483637, -3997690, -2147483637, -3997689, 1610612741, -3997688, 1610612740, -3997677, 1073741832, -3997676, 1073741835, -3997675, 1073741835, -3997674, 1073741835, -3997673, 1073741835, -3997672, 1073741835, -3997671, 1610612747, -3997670, 1610612747, -3997669, 1610612747, -3997668, -1610612725, -3997667, 1610612747, -3932160, -2147483637, -3932159, -2147483637, -3932158, -2147483637, -3932157, -2147483637, -3932156, -2147483637, -3932155, -2147483637, -3932154, -2147483637, -3932153, 1073741835, -3932152, 536870920, -3932141, 8, -3932140, 1073741835, -3932139, 1073741835, -3932138, 1073741835, -3932137, 1073741835, -3932136, 1073741835, -3932135, 1610612747, -3932134, 1610612747, -3932133, 1610612747, -3932132, -1610612725, -3932131, 1610612747, -3866624, 11, -3866623, -2147483637, -3866622, -2147483637, -3866621, -2147483637, -3866620, -2147483637, -3866619, -2147483637, -3866618, -2147483637, -3866617, -2147483637, -3866616, 536870920, -3866606, 1073741828, -3866605, 1073741829, -3866604, 1073741835, -3866603, 1073741835, -3866602, 1073741835, -3866601, 1073741835, -3866600, 1073741835, -3866599, 1610612747, -3866598, 1610612747, -3866597, 1610612747, -3866596, 1610612747, -3866595, 1610612747, -3801088, 11, -3801087, -2147483637, -3801086, -2147483637, -3801085, -2147483637, -3801084, -2147483637, -3801083, -2147483637, -3801082, -2147483637, -3801081, 536870917, -3801080, 536870916, -3801070, 4, -3801069, 5, -3801068, 1073741835, -3801067, 1073741835, -3801066, 1073741835, -3801065, 1073741835, -3801064, 1073741835, -3801063, 1610612747, -3801062, 1610612747, -3801061, 1610612747, -3801060, 1610612747, -3801059, 1610612747, -3735552, 11, -3735551, -2147483637, -3735550, -2147483637, -3735549, -2147483637, -3735548, -2147483637, -3735547, -2147483637, -3735546, -2147483637, -3735545, 1610612741, -3735544, 1610612740, -3735533, 8, -3735532, 1073741835, -3735531, 1073741835, -3735530, 1073741835, -3735529, 1073741835, -3735528, 1073741835, -3735527, 1073741835, -3735526, 1610612747, -3735525, 1610612747, -3735524, 1610612747, -3735523, 1610612747, -3670016, -2147483637, -3670015, -2147483637, -3670014, -2147483637, -3670013, -2147483637, -3670012, -2147483637, -3670011, -2147483637, -3670010, -2147483637, -3670009, -2147483637, -3670008, 536870920, -3669997, 8, -3669996, 1073741835, -3669995, 1073741835, -3669994, 1073741835, -3669993, 1073741835, -3669992, 1073741835, -3669991, 1073741835, -3669990, 1610612747, -3669989, 1610612747, -3669988, 1610612747, -3669987, 1610612747, -3604480, 11, -3604479, -2147483637, -3604478, -2147483637, -3604477, -2147483637, -3604476, -2147483637, -3604475, -2147483637, -3604474, -2147483637, -3604473, -2147483637, -3604472, 1610612744, -3604461, 8, -3604460, 1073741835, -3604459, 1073741835, -3604458, 1073741835, -3604457, 1073741835, -3604456, 1073741835, -3604455, 1073741835, -3604454, 1610612747, -3604453, 1610612747, -3604452, 1610612747, -3604451, 1610612747, -3538944, 11, -3538943, -2147483637, -3538942, -2147483637, -3538941, -2147483637, -3538940, -2147483637, -3538939, -2147483637, -3538938, -2147483637, -3538937, -2147483637, -3538936, 1610612744, -3538925, 4, -3538924, 5, -3538923, 1073741835, -3538922, 1073741835, -3538921, 1073741835, -3538920, 1073741835, -3538919, 1073741835, -3538918, 1610612747, -3538917, 1610612747, -3538916, 1610612747, -3538915, 1610612747, -3473408, 11, -3473407, -2147483637, -3473406, -2147483637, -3473405, -2147483637, -3473404, -2147483637, -3473403, -2147483637, -3473402, -2147483637, -3473401, -2147483637, -3473400, 1610612741, -3473399, 1610612740, -3473388, 4, -3473387, 5, -3473386, 1073741835, -3473385, 1073741835, -3473384, 1073741835, -3473383, 1073741835, -3473382, 1610612747, -3473381, 1610612747, -3473380, 1610612747, -3473379, 1610612747, -3407872, 11, -3407871, -2147483637, -3407870, -2147483637, -3407869, -2147483637, -3407868, -2147483637, -3407867, -2147483637, -3407866, -2147483637, -3407865, -2147483637, -3407864, -2147483637, -3407863, 1610612741, -3407862, 1610612740, -3407851, 8, -3407850, 1073741835, -3407849, 1073741835, -3407848, 1073741835, -3407847, 1610612747, -3407846, 1610612747, -3407845, 1610612747, -3407844, 1610612747, -3407843, 1610612747, -3342336, 11, -3342335, -2147483637, -3342334, -2147483637, -3342333, -2147483637, -3342332, -2147483637, -3342331, -2147483637, -3342330, -2147483637, -3342329, -2147483637, -3342328, -2147483637, -3342327, -2147483637, -3342326, 1610612744, -3342315, 4, -3342314, 5, -3342313, 1073741835, -3342312, 1073741835, -3342311, 1610612747, -3342310, 1610612747, -3342309, 1610612747, -3342308, 1610612747, -3342307, 1610612747, -3276800, 11, -3276799, -2147483637, -3276798, -2147483637, -3276797, -2147483637, -3276796, -2147483637, -3276795, -2147483637, -3276794, -2147483637, -3276793, -2147483637, -3276792, -2147483637, -3276791, -2147483637, -3276790, 1610612741, -3276789, 1610612740, -3276778, 8, -3276777, 1073741835, -3276776, 1073741835, -3276775, 1610612747, -3276774, 1610612747, -3276773, 1610612747, -3276772, 1610612747, -3276771, 1610612747, -3211264, 11, -3211263, -2147483637, -3211262, -2147483637, -3211261, -2147483637, -3211260, -2147483637, -3211259, -2147483637, -3211258, -2147483637, -3211257, -2147483637, -3211256, -2147483637, -3211255, -2147483637, -3211254, 1073741835, -3211253, 1610612744, -3211242, 8, -3211241, 1073741835, -3211240, 1073741835, -3211239, 1610612747, -3211238, 1610612747, -3211237, 1610612747, -3211236, 1610612747, -3211235, 1610612747, -3145728, 11, -3145727, -2147483637, -3145726, -2147483637, -3145725, -2147483637, -3145724, -2147483637, -3145723, -2147483637, -3145722, -2147483637, -3145721, -2147483637, -3145720, -2147483637, -3145719, -2147483637, -3145718, -2147483637, -3145717, 1610612744, -3145706, 4, -3145705, 5, -3145704, 1073741835, -3145703, 1610612747, -3145702, 1610612747, -3145701, 1610612747, -3145700, 1610612747, -3145699, 1610612747, -3080192, 11, -3080191, -2147483637, -3080190, -2147483637, -3080189, -2147483637, -3080188, -2147483637, -3080187, -2147483637, -3080186, -2147483637, -3080185, -2147483637, -3080184, -2147483637, -3080183, -2147483637, -3080182, -2147483637, -3080181, 1610612741, -3080180, 1610612740, -3080169, 8, -3080168, 1073741835, -3080167, 1610612747, -3080166, 1610612747, -3080165, 1610612747, -3080164, 1610612747, -3080163, 1610612747, -3014656, -2147483637, -3014655, -2147483637, -3014654, -2147483637, -3014653, -2147483637, -3014652, -2147483637, -3014651, -2147483637, -3014650, -2147483637, -3014649, -2147483637, -3014648, -2147483637, -3014647, -2147483637, -3014646, -2147483637, -3014645, -2147483637, -3014644, 1610612744, -3014633, 4, -3014632, 5, -3014631, 1610612747, -3014630, 1610612747, -3014629, 1610612747, -3014628, 1610612747, -3014627, 1610612747, -2949120, 11, -2949119, -2147483637, -2949118, -2147483637, -2949117, -2147483637, -2949116, -2147483637, -2949115, -2147483637, -2949114, -2147483637, -2949113, -2147483637, -2949112, -2147483637, -2949111, -2147483637, -2949110, -2147483637, -2949109, -2147483637, -2949108, 1610612741, -2949107, 1610612740, -2949096, 4, -2949095, 5, -2949094, 1610612747, -2949093, 1610612747, -2949092, 1610612747, -2949091, 1610612747, -2883584, 11, -2883583, -2147483637, -2883582, -2147483637, -2883581, -2147483637, -2883580, -2147483637, -2883579, -2147483637, -2883578, -2147483637, -2883577, -2147483637, -2883576, -2147483637, -2883575, -2147483637, -2883574, -2147483637, -2883573, -2147483637, -2883572, -2147483637, -2883571, 1610612741, -2883570, 1610612740, -2883559, 8, -2883558, 1610612747, -2883557, 1610612747, -2883556, 1610612747, -2883555, 1610612747, -2818048, 11, -2818047, -2147483637, -2818046, -2147483637, -2818045, -2147483637, -2818044, -2147483637, -2818043, -2147483637, -2818042, -2147483637, -2818041, -2147483637, -2818040, -2147483637, -2818039, -2147483637, -2818038, -2147483637, -2818037, -2147483637, -2818036, -2147483637, -2818035, -2147483637, -2818034, 1610612744, -2818023, 4, -2818022, 5, -2818021, 1073741835, -2818020, 1610612747, -2818019, 1610612747, -2752512, 11, -2752511, -2147483637, -2752510, -2147483637, -2752509, -2147483637, -2752508, -2147483637, -2752507, -2147483637, -2752506, -2147483637, -2752505, -2147483637, -2752504, -2147483637, -2752503, -2147483637, -2752502, -2147483637, -2752501, -2147483637, -2752500, -2147483637, -2752499, -2147483637, -2752498, 1610612741, -2752497, 1610612740, -2752486, 4, -2752485, 5, -2752484, 1610612747, -2752483, 1610612747, -2686976, 11, -2686975, -2147483637, -2686974, -2147483637, -2686973, -2147483637, -2686972, -2147483637, -2686971, -2147483637, -2686970, -2147483637, -2686969, -2147483637, -2686968, -2147483637, -2686967, -2147483637, -2686966, -2147483637, -2686965, -2147483637, -2686964, -2147483637, -2686963, -2147483637, -2686962, -2147483637, -2686961, 1610612741, -2686960, -1610612728, -2686959, -2147483644, -2686949, 8, -2686948, 1610612747, -2686947, 1610612747, -2621440, 11, -2621439, -2147483637, -2621438, -2147483637, -2621437, -2147483637, -2621436, -2147483637, -2621435, -2147483637, -2621434, -2147483637, -2621433, -2147483637, -2621432, -2147483637, -2621431, -2147483637, -2621430, -2147483637, -2621429, -2147483637, -2621428, -2147483637, -2621427, -2147483637, -2621426, -2147483637, -2621425, 1073741835, -2621424, 1073741835, -2621423, 1610612741, -2621422, -2147483640, -2621421, -2147483644, -2621413, 4, -2621412, 5, -2621411, 1610612747, -2555904, 11, -2555903, -2147483637, -2555902, -2147483637, -2555901, -2147483637, -2555900, -2147483637, -2555899, -2147483637, -2555898, -2147483637, -2555897, -2147483637, -2555896, -2147483637, -2555895, -2147483637, -2555894, -2147483637, -2555893, -2147483637, -2555892, -2147483637, -2555891, -2147483637, -2555890, -2147483637, -2555889, 1610612747, -2555888, 1073741835, -2555887, 536870917, -2555886, -1073741816, -2555885, -1073741820, -2555876, 8, -2555875, 1610612747, -2490368, 11, -2490367, -2147483637, -2490366, -2147483637, -2490365, -2147483637, -2490364, -2147483637, -2490363, -2147483637, -2490362, -2147483637, -2490361, -2147483637, -2490360, -2147483637, -2490359, -2147483637, -2490358, -2147483637, -2490357, -2147483637, -2490356, -2147483637, -2490355, -2147483637, -2490354, -2147483637, -2490353, -1073741819, -2490352, -536870904, -2490351, 536870916, -2490340, 8, -2490339, 1073741835, -2424832, 11, -2424831, -2147483637, -2424830, -2147483637, -2424829, -2147483637, -2424828, -2147483637, -2424827, -2147483637, -2424826, -2147483637, -2424825, -2147483637, -2424824, -2147483637, -2424823, -2147483637, -2424822, -2147483637, -2424821, -2147483637, -2424820, -2147483637, -2424819, 1610612747, -2424818, 536870917, -2424817, 536870916, -2424805, -1610612732, -2424804, -1610612731, -2424803, 1610612747, -2359296, -2147483637, -2359295, -2147483637, -2359294, -2147483637, -2359293, -2147483637, -2359292, -2147483637, -2359291, -2147483637, -2359290, -2147483637, -2359289, -2147483637, -2359288, -2147483637, -2359287, -2147483637, -2359286, 1610612747, -2359285, 1610612747, -2359284, 536870917, -2359283, -536870904, -2359282, 536870916, -2359271, -1610612732, -2359270, -1610612728, -2359269, -1610612731, -2359268, -1610612725, -2359267, 1610612747, -2293760, -2147483637, -2293759, -2147483637, -2293758, -2147483637, -2293757, -2147483637, -2293756, -2147483637, -2293755, -2147483637, -2293754, -2147483637, -2293753, -2147483637, -2293752, -2147483637, -2293751, -2147483637, -2293750, 1610612747, -2293749, -1073741819, -2293748, -1073741820, -2293736, -1610612732, -2293735, -1610612731, -2293734, -2147483637, -2293733, -2147483637, -2293732, -2147483637, -2293731, 1610612747, -2228224, 11, -2228223, -2147483637, -2228222, -2147483637, -2228221, -2147483637, -2228220, -2147483637, -2228219, -2147483637, -2228218, -2147483637, -2228217, -2147483637, -2228216, 1610612747, -2228215, 536870917, -2228214, -536870904, -2228213, -1073741820, -2228201, -1610612732, -2228200, -1610612731, -2228199, -2147483637, -2228198, -2147483637, -2228197, -2147483637, -2228196, -2147483637, -2228195, 1610612747, -2162688, 11, -2162687, -2147483637, -2162686, -2147483637, -2162685, -2147483637, -2162684, -2147483637, -2162683, -2147483637, -2162682, -2147483637, -2162681, 1610612747, -2162680, 536870917, -2162679, -1073741820, -2162667, -1610612732, -2162666, -1610612728, -2162665, -1610612731, -2162664, -2147483637, -2162663, -2147483637, -2162662, -2147483637, -2162661, -2147483637, -2162660, -2147483637, -2162659, 1610612747, -2097152, 11, -2097151, -2147483637, -2097150, -2147483637, -2097149, -2147483637, -2097148, -2147483637, -2097147, -2147483637, -2097146, -2147483637, -2097145, 536870917, -2097144, -1073741820, -2097132, -1610612732, -2097131, -1610612731, -2097130, 1610612747, -2097129, 1610612747, -2097128, 1610612747, -2097127, 1610612747, -2097126, -2147483637, -2097125, -2147483637, -2097124, -1610612725, -2097123, 1610612747, -2031616, -2147483637, -2031615, -2147483637, -2031614, -2147483637, -2031613, -2147483637, -2031612, -2147483637, -2031611, 1610612747, -2031610, 1610612747, -2031609, 536870920, -2031597, -1610612732, -2031596, -1610612731, -2031595, 1610612747, -2031594, 1610612747, -2031593, 1610612747, -2031592, 1610612747, -2031591, 1610612747, -2031590, -2147483637, -2031589, -2147483637, -2031588, 1610612747, -2031587, 1610612747, -1966080, 11, -1966079, -2147483637, -1966078, -2147483637, -1966077, -2147483637, -1966076, -2147483637, -1966075, 1610612747, -1966074, 536870917, -1966073, 536870916, -1966061, 8, -1966060, -2147483637, -1966059, 1610612747, -1966058, -1610612725, -1966057, 1610612747, -1966056, 1610612747, -1966055, 1610612747, -1966054, -2147483637, -1966053, -2147483637, -1966052, 1610612747, -1966051, 1610612747, -1900544, -2147483637, -1900543, -2147483637, -1900542, -2147483637, -1900541, -2147483637, -1900540, 1610612747, -1900539, 536870917, -1900538, 536870916, -1900529, 1073741828, -1900528, -1610612728, -1900527, -1610612728, -1900526, -1610612728, -1900525, -1610612731, -1900524, -2147483637, -1900523, 1610612747, -1900522, 1610612747, -1900521, -1610612725, -1900520, 1610612747, -1900519, 1610612747, -1900518, 1610612747, -1900517, -2147483637, -1900516, 1610612747, -1900515, 1610612747, -1835008, -2147483637, -1835007, -2147483637, -1835006, -2147483637, -1835005, -2147483637, -1835004, 1610612747, -1835003, 536870920, -1834994, -1610612732, -1834993, 1073741829, -1834992, 1073741835, -1834991, -2147483637, -1834990, 1610612747, -1834989, 1610612747, -1834988, -2147483637, -1834987, 1610612747, -1834986, -2147483637, -1834985, -1610612725, -1834984, -1610612725, -1834983, 1610612747, -1834982, 1610612747, -1834981, -2147483637, -1834980, 1610612747, -1834979, 1610612747, -1769472, -2147483637, -1769471, -2147483637, -1769470, -2147483637, -1769469, -2147483637, -1769468, 536870917, -1769467, 536870916, -1769458, 8, -1769457, -1610612725, -1769456, 1610612747, -1769455, 1610612747, -1769454, 1610612747, -1769453, 1610612747, -1769452, -2147483637, -1769451, -2147483637, -1769450, -1610612725, -1769449, -1610612725, -1769448, 1610612747, -1769447, 1610612747, -1769446, 1610612747, -1769445, -2147483637, -1769444, 1610612747, -1769443, 1610612747, -1703936, -2147483637, -1703935, -2147483637, -1703934, -2147483637, -1703933, -2147483637, -1703932, 536870920, -1703923, -1610612732, -1703922, -1610612731, -1703921, -1610612725, -1703920, -1610612725, -1703919, 1610612747, -1703918, 1610612747, -1703917, 1610612747, -1703916, -2147483637, -1703915, -1610612725, -1703914, -1610612725, -1703913, 1610612747, -1703912, -1610612725, -1703911, 1610612747, -1703910, 1610612747, -1703909, -2147483637, -1703908, -1610612725, -1703907, 1610612747, -1638400, 11, -1638399, -2147483637, -1638398, 1610612747, -1638397, 536870917, -1638396, 536870916, -1638388, -1610612732, -1638387, -1610612731, -1638386, 1073741835, -1638385, -1610612725, -1638384, 1610612747, -1638383, 1610612747, -1638382, 1610612747, -1638381, 1610612747, -1638380, 1610612747, -1638379, 1610612747, -1638378, 1610612747, -1638377, -2147483637, -1638376, -1610612725, -1638375, -1610612725, -1638374, 1610612747, -1638373, -2147483637, -1638372, -1610612725, -1638371, 1610612747, -1572864, 11, -1572863, -2147483637, -1572862, 536870917, -1572861, -1073741820, -1572852, 8, -1572851, 1073741835, -1572850, 1073741835, -1572849, 1610612747, -1572848, -1610612725, -1572847, 1610612747, -1572846, 1610612747, -1572845, -1610612725, -1572844, 1610612747, -1572843, 1610612747, -1572842, 1610612747, -1572841, -2147483637, -1572840, -1610612725, -1572839, -1610612725, -1572838, -1610612725, -1572837, -2147483637, -1572836, -1610612725, -1572835, 1610612747, -1507328, 11, -1507327, -2147483637, -1507326, 536870920, -1507316, -536870908, -1507315, -536870904, -1507314, 5, -1507313, -2147483637, -1507312, -1610612725, -1507311, -1610612725, -1507310, 1610612747, -1507309, -2147483637, -1507308, -1610612725, -1507307, -1610612725, -1507306, 1610612747, -1507305, -2147483637, -1507304, -1610612725, -1507303, -1610612725, -1507302, -1610612725, -1507301, -2147483637, -1507300, -1610612725, -1507299, 1610612747, -1441792, 11, -1441791, -2147483637, -1441790, 1610612741, -1441789, -1610612728, -1441788, -2147483644, -1441778, -536870908, -1441777, 5, -1441776, 1073741835, -1441775, 1073741835, -1441774, -2147483637, -1441773, 1610612747, -1441772, 1610612747, -1441771, 1610612747, -1441770, 1610612747, -1441769, 1610612747, -1441768, -1610612725, -1441767, -1610612725, -1441766, -1610612725, -1441765, -2147483637, -1441764, -1610612725, -1441763, 1610612747, -1376256, -2147483637, -1376255, -2147483637, -1376254, -2147483637, -1376253, 1610612747, -1376252, 1610612741, -1376251, -2147483644, -1376241, -536870908, -1376240, 5, -1376239, 1073741835, -1376238, -2147483637, -1376237, 1610612747, -1376236, 1610612747, -1376235, 1610612747, -1376234, 1610612747, -1376233, 1610612747, -1376232, 1610612747, -1376231, -1610612725, -1376230, -1610612725, -1376229, -2147483637, -1376228, 1610612747, -1376227, 1610612747, -1310720, -2147483637, -1310719, -2147483637, -1310718, -2147483637, -1310717, -2147483637, -1310716, 1610612747, -1310715, 1610612741, -1310714, -2147483644, -1310704, -536870908, -1310703, 5, -1310702, -2147483637, -1310701, -1610612725, -1310700, 1610612747, -1310699, 1610612747, -1310698, 1610612747, -1310697, 1610612747, -1310696, 1610612747, -1310695, 1610612747, -1310694, -1610612725, -1310693, -2147483637, -1310692, 1610612747, -1310691, 1610612747, -1245184, -2147483637, -1245183, -2147483637, -1245182, -2147483637, -1245181, -2147483637, -1245180, 1610612747, -1245179, 1610612747, -1245178, 1610612741, -1245177, -2147483644, -1245167, 8, -1245166, -2147483637, -1245165, -1610612725, -1245164, -1610612725, -1245163, 1610612747, -1245162, 1610612747, -1245161, 1610612747, -1245160, 1610612747, -1245159, 1610612747, -1245158, 1610612747, -1245157, -2147483637, -1245156, 1610612747, -1245155, 1610612747, -1179648, -2147483637, -1179647, -2147483637, -1179646, -2147483637, -1179645, -2147483637, -1179644, -2147483637, -1179643, -2147483637, -1179642, -2147483637, -1179641, 1610612744, -1179631, -536870908, -1179630, -536870904, -1179629, -536870907, -1179628, -2147483637, -1179627, -1610612725, -1179626, -1610612725, -1179625, 1610612747, -1179624, 1610612747, -1179623, 1610612747, -1179622, 1610612747, -1179621, -2147483637, -1179620, 1610612747, -1179619, 1610612747, -1114112, -2147483637, -1114111, -2147483637, -1114110, -2147483637, -1114109, -2147483637, -1114108, -2147483637, -1114107, -2147483637, -1114106, -2147483637, -1114105, -2147483643, -1114104, -2147483640, -1114103, -2147483644, -1114093, -536870908, -1114092, -536870904, -1114091, -536870904, -1114090, 5, -1114089, 1610612747, -1114088, -2147483637, -1114087, 1610612747, -1114086, 1610612747, -1114085, -2147483637, -1114084, -2147483637, -1114083, -2147483637, -1048576, 11, -1048575, -2147483637, -1048574, -2147483637, -1048573, -2147483637, -1048572, -2147483637, -1048571, -2147483637, -1048570, -2147483637, -1048569, 1610612747, -1048568, 1610612747, -1048567, 1610612741, -1048566, -2147483644, -1048554, 4, -1048553, 5, -1048552, -2147483637, -1048551, -2147483637, -1048550, 1610612747, -1048549, -2147483637, -1048548, -2147483637, -1048547, -2147483637, -983040, 11, -983039, -2147483637, -983038, -2147483637, -983037, -2147483637, -983036, -2147483637, -983035, -2147483637, -983034, -2147483637, -983033, -2147483637, -983032, -2147483637, -983031, 1610612747, -983030, 1610612744, -983017, 4, -983016, 5, -983015, -2147483637, -983014, -2147483637, -983013, -2147483637, -983012, -2147483637, -983011, -2147483637, -917504, 11, -917503, -2147483637, -917502, -2147483637, -917501, -2147483637, -917500, -2147483637, -917499, -2147483637, -917498, -2147483637, -917497, -2147483637, -917496, -2147483637, -917495, 1610612747, -917494, 1610612741, -917493, -1610612728, -917492, -1610612728, -917491, -2147483644, -917480, 8, -917479, -2147483637, -917478, -2147483637, -917477, -2147483637, -917476, -2147483637, -917475, -2147483637, -851968, 11, -851967, -2147483637, -851966, -2147483637, -851965, -2147483637, -851964, -2147483637, -851963, -2147483637, -851962, -2147483637, -851961, -2147483637, -851960, -2147483637, -851959, -2147483637, -851958, -2147483637, -851957, -2147483637, -851956, 1610612747, -851955, 1610612741, -851954, 1610612740, -851944, 4, -851943, 5, -851942, -2147483637, -851941, -2147483637, -851940, -2147483637, -851939, -2147483637, -786432, 11, -786431, -2147483637, -786430, -2147483637, -786429, -2147483637, -786428, -2147483637, -786427, -2147483637, -786426, -2147483637, -786425, -2147483637, -786424, -2147483637, -786423, -2147483637, -786422, -2147483637, -786421, -2147483637, -786420, 1610612747, -786419, 1610612747, -786418, 1610612741, -786417, 1610612740, -786407, 8, -786406, -2147483637, -786405, -2147483637, -786404, -2147483637, -786403, -2147483637, -720896, 11, -720895, -2147483637, -720894, -2147483637, -720893, -2147483637, -720892, -2147483637, -720891, -2147483637, -720890, -2147483637, -720889, -2147483637, -720888, -2147483637, -720887, -2147483637, -720886, -2147483637, -720885, -2147483637, -720884, -2147483637, -720883, -2147483637, -720882, -2147483637, -720881, 1610612744, -720871, -536870908, -720870, -536870907, -720869, -2147483637, -720868, -2147483637, -720867, -2147483637, -655360, 11, -655359, -2147483637, -655358, -2147483637, -655357, -2147483637, -655356, -2147483637, -655355, -2147483637, -655354, -2147483637, -655353, -2147483637, -655352, -2147483637, -655351, -2147483637, -655350, -2147483637, -655349, -2147483637, -655348, -2147483637, -655347, -2147483637, -655346, -2147483637, -655345, 1610612741, -655344, 1610612740, -655334, -536870908, -655333, -536870907, -655332, 1610612747, -655331, 1610612747, -589824, 11, -589823, -2147483637, -589822, -2147483637, -589821, -2147483637, -589820, -2147483637, -589819, -2147483637, -589818, -2147483637, -589817, -2147483637, -589816, -2147483637, -589815, -2147483637, -589814, -2147483637, -589813, -2147483637, -589812, -2147483637, -589811, -2147483637, -589810, -2147483637, -589809, 11, -589808, 1610612744, -589797, 8, -589796, 1610612747, -589795, 1610612747, -524288, 11, -524287, -2147483637, -524286, -2147483637, -524285, -2147483637, -524284, -2147483637, -524283, -2147483637, -524282, -2147483637, -524281, -2147483637, -524280, -2147483637, -524279, -2147483637, -524278, -2147483637, -524277, -2147483637, -524276, -2147483637, -524275, -2147483637, -524274, -2147483637, -524273, -2147483637, -524272, 1610612741, -524271, 1610612740, -524261, 8, -524260, 1610612747, -524259, 1610612747, -458752, -2147483637, -458751, -2147483637, -458750, -2147483637, -458749, -2147483637, -458748, -2147483637, -458747, -2147483637, -458746, -2147483637, -458745, -2147483637, -458744, -2147483637, -458743, -2147483637, -458742, -2147483637, -458741, -2147483637, -458740, -2147483637, -458739, -2147483637, -458738, -2147483637, -458737, -2147483637, -458736, -2147483637, -458735, 1610612741, -458734, 1610612740, -458725, 8, -458724, 1610612747, -458723, 1610612747, -393216, 11, -393215, -2147483637, -393214, -2147483637, -393213, -2147483637, -393212, -2147483637, -393211, -2147483637, -393210, -2147483637, -393209, -2147483637, -393208, -2147483637, -393207, -2147483637, -393206, -2147483637, -393205, -2147483637, -393204, -2147483637, -393203, -2147483637, -393202, -2147483637, -393201, -2147483637, -393200, -2147483637, -393199, -2147483637, -393198, 536870920, -393189, 8, -393188, 1610612747, -393187, 1610612747, -327680, 11, -327679, -2147483637, -327678, -2147483637, -327677, -2147483637, -327676, -2147483637, -327675, -2147483637, -327674, -2147483637, -327673, -2147483637, -327672, -2147483637, -327671, -2147483637, -327670, -2147483637, -327669, -2147483637, -327668, -2147483637, -327667, -2147483637, -327666, -2147483637, -327665, -2147483637, -327664, -2147483637, -327663, -2147483637, -327662, 536870920, -327653, 8, -327652, 1610612747, -327651, 1610612747, -262144, 11, -262143, -2147483637, -262142, -2147483637, -262141, -2147483637, -262140, -2147483637, -262139, -2147483637, -262138, -2147483637, -262137, -2147483637, -262136, -2147483637, -262135, -2147483637, -262134, -2147483637, -262133, -2147483637, -262132, -2147483637, -262131, -2147483637, -262130, -2147483637, -262129, -2147483637, -262128, -2147483637, -262127, 536870917, -262126, 536870916, -262117, 8, -262116, 1610612747, -262115, 1610612747, -196608, -2147483637, -196607, -2147483637, -196606, -2147483637, -196605, -2147483637, -196604, -2147483637, -196603, -2147483637, -196602, -2147483637, -196601, -2147483637, -196600, -2147483637, -196599, 1073741835, -196598, -2147483637, -196597, -2147483637, -196596, -2147483637, -196595, -2147483637, -196594, -2147483637, -196593, -2147483637, -196592, -2147483637, -196591, 1610612744, -196581, 4, -196580, 5, -196579, 1610612747, -131072, 11, -131071, -2147483637, -131070, -2147483637, -131069, -2147483637, -131068, -2147483637, -131067, -2147483637, -131066, -2147483637, -131065, -2147483637, -131064, -2147483637, -131063, -2147483637, -131062, 1073741835, -131061, -2147483637, -131060, -2147483637, -131059, -2147483637, -131058, -2147483637, -131057, -2147483637, -131056, -2147483637, -131055, 1610612741, -131054, 1610612740, -131044, 8, -131043, 1610612747, -65536, 11, -65535, -2147483637, -65534, -2147483637, -65533, -2147483637, -65532, -2147483637, -65531, -2147483637, -65530, -2147483637, -65529, -2147483637, -65528, -2147483637, -65527, -2147483637, -65526, 1073741835, -65525, 1073741835, -65524, -2147483637, -65523, -2147483637, -65522, -2147483637, -65521, -2147483637, -65520, -2147483637, -65519, -2147483637, -65518, 536870920, -65508, 8, -65507, 1610612747, 0, 11, 1, -2147483637, 2, -2147483637, 3, -2147483637, 4, -2147483637, 5, -2147483637, 6, -2147483637, 7, -2147483637, 8, -2147483637, 9, -2147483637, 10, -2147483637, 11, 1073741835, 12, 1073741835, 13, -2147483637, 14, -2147483637, 15, -2147483637, 16, -2147483637, 17, -2147483637, 18, 536870920, 28, 8, 29, 1610612747, 65536, 11, 65537, -2147483637, 65538, -2147483637, 65539, -2147483637, 65540, -2147483637, 65541, -2147483637, 65542, -2147483637, 65543, -2147483637, 65544, -2147483637, 65545, -2147483637, 65546, -2147483637, 65547, -2147483637, 65548, 1073741835, 65549, -2147483637, 65550, -2147483637, 65551, -2147483637, 65552, -2147483637, 65553, -2147483637, 65554, 536870920, 65564, 8, 65565, 1610612747, 131072, 11, 131073, -2147483637, 131074, -2147483637, 131075, -2147483637, 131076, -2147483637, 131077, -2147483637, 131078, -2147483637, 131079, -2147483637, 131080, -2147483637, 131081, -2147483637, 131082, -2147483637, 131083, -2147483637, 131084, -2147483637, 131085, -2147483637, 131086, -2147483637, 131087, -2147483637, 131088, -2147483637, 131089, 536870917, 131090, -1073741820, 131100, 8, 131101, 1610612747, 196608, 11, 196609, -2147483637, 196610, -2147483637, 196611, -2147483637, 196612, -2147483637, 196613, -2147483637, 196614, -2147483637, 196615, -2147483637, 196616, -2147483637, 196617, -2147483637, 196618, -2147483637, 196619, -2147483637, 196620, -2147483637, 196621, -2147483637, 196622, -2147483637, 196623, 536870917, 196624, -536870904, 196625, -1073741820, 196636, 8, 196637, 1610612747, 262144, 11, 262145, -2147483637, 262146, -2147483637, 262147, -2147483637, 262148, -2147483637, 262149, -2147483637, 262150, -2147483637, 262151, -2147483637, 262152, -2147483637, 262153, -2147483637, 262154, -2147483637, 262155, -2147483637, 262156, -2147483637, 262157, -2147483637, 262158, 536870917, 262159, -1073741820, 262172, 8, 262173, 1610612747, 327680, 11, 327681, -2147483637, 327682, -2147483637, 327683, -2147483637, 327684, -2147483637, 327685, -2147483637, 327686, -2147483637, 327687, -2147483637, 327688, -2147483637, 327689, -2147483637, 327690, -2147483637, 327691, -2147483637, 327692, -2147483637, 327693, -2147483637, 327694, 536870920, 327708, 8, 327709, 1610612747, 393216, 11, 393217, -2147483637, 393218, -2147483637, 393219, -2147483637, 393220, -2147483637, 393221, -2147483637, 393222, -2147483637, 393223, -2147483637, 393224, -2147483637, 393225, -2147483637, 393226, -2147483637, 393227, -2147483637, 393228, -2147483637, 393229, 536870917, 393230, -1073741820, 393244, 8, 393245, 1610612747, 458752, 11, 458753, -2147483637, 458754, -2147483637, 458755, -2147483637, 458756, -2147483637, 458757, -2147483637, 458758, -2147483637, 458759, -2147483637, 458760, -2147483637, 458761, -2147483637, 458762, -2147483637, 458763, -2147483637, 458764, -2147483637, 458765, 536870920, 458778, 1073741828, 458779, -1610612728, 458780, -1610612731, 458781, 1610612747, 524288, 11, 524289, -2147483637, 524290, -2147483637, 524291, -2147483637, 524292, -2147483637, 524293, -2147483637, 524294, -2147483637, 524295, -2147483637, 524296, -2147483637, 524297, -2147483637, 524298, -2147483637, 524299, -2147483637, 524300, 536870917, 524301, -1073741820, 524313, 1073741828, 524314, -1610612731, 524315, 1073741835, 524316, 1073741835, 524317, 1610612747, 589824, 11, 589825, -2147483637, 589826, -2147483637, 589827, -2147483637, 589828, -2147483637, 589829, -2147483637, 589830, -2147483637, 589831, -2147483637, 589832, -2147483637, 589833, -2147483637, 589834, -2147483637, 589835, 536870917, 589836, -1073741820, 589845, 1073741828, 589846, -1610612728, 589847, -1610612728, 589848, -1610612728, 589849, -1610612731, 589850, 1073741835, 589851, 1073741835, 589852, 1073741835, 589853, 1610612747, 655360, 11, 655361, -2147483637, 655362, -2147483637, 655363, -2147483637, 655364, -2147483637, 655365, -2147483637, 655366, -2147483637, 655367, -2147483637, 655368, -2147483637, 655369, -2147483637, 655370, 536870917, 655371, -1073741820, 655380, 1073741828, 655381, 1073741829, 655382, 1073741835, 655383, 1073741835, 655384, 1073741835, 655385, 1073741835, 655386, 1073741835, 655387, 1073741835, 655388, 1073741835, 655389, 1610612747, 720896, 11, 720897, -2147483637, 720898, -2147483637, 720899, -2147483637, 720900, -2147483637, 720901, -2147483637, 720902, -2147483637, 720903, -2147483637, 720904, -2147483637, 720905, -2147483637, 720906, 1610612744, 720916, 8, 720917, 1073741835, 720918, 1073741835, 720919, 1073741835, 720920, 1073741835, 720921, 1073741835, 720922, 1073741835, 720923, 1073741835, 720924, 1073741835, 720925, 1610612747, 786432, 11, 786433, -2147483637, 786434, -2147483637, 786435, -2147483637, 786436, -2147483637, 786437, -2147483637, 786438, -2147483637, 786439, -2147483637, 786440, -2147483637, 786441, -2147483637, 786442, 1610612744, 786451, -1610612732, 786452, -1610612731, 786453, 1073741835, 786454, 1073741835, 786455, 1073741835, 786456, 1073741835, 786457, 1073741835, 786458, 1073741835, 786459, 1073741835, 786460, 1073741835, 786461, 1610612747, 851968, 11, 851969, 1610612747, 851970, -2147483637, 851971, -2147483637, 851972, -2147483637, 851973, -2147483637, 851974, -2147483637, 851975, -2147483637, 851976, -2147483637, 851977, -2147483637, 851978, -2147483643, 851979, 1610612740, 851985, -1610612732, 851986, -1610612728, 851987, 1073741829, 851988, 1073741835, 851989, 1073741835, 851990, 1073741835, 851991, 1073741835, 851992, 1073741835, 851993, 1073741835, 851994, 1073741835, 851995, 1073741835, 851996, 1610612747, 851997, 1610612747, 917504, 11, 917505, 1610612747, 917506, 1610612747, 917507, 1610612747, 917508, 1610612747, 917509, 1610612747, 917510, 1610612747, 917511, 1610612747, 917512, 1610612747, 917513, 1610612747, 917514, 1610612747, 917515, 1610612744, 917521, 8, 917522, -1610612725, 917523, 1610612747, 917524, 1610612747, 917525, 1073741835, 917526, 1073741835, 917527, 1073741835, 917528, 1073741835, 917529, 1610612747, 917530, 1610612747, 917531, 1610612747, 917532, 1610612747, 917533, 1610612747, 983040, 11, 983041, -1610612725, 983042, -1610612725, 983043, -1610612725, 983044, -1610612725, 983045, -1610612725, 983046, -1610612725, 983047, -1610612725, 983048, -1610612725, 983049, -1610612725, 983050, -1610612725, 983051, 1610612741, 983052, 1610612740, 983056, -1610612732, 983057, -1610612731, 983058, -1610612725, 983059, -1610612725, 983060, -1610612725, 983061, -1610612725, 983062, -1610612725, 983063, -1610612725, 983064, -1610612725, 983065, -1610612725, 983066, -1610612725, 983067, -1610612725, 983068, -1610612725, 983069, -1610612725, 1048576, 11, 1048577, -1610612725, 1048578, -1610612725, 1048579, -1610612725, 1048580, -1610612725, 1048581, -1610612725, 1048582, -1610612725, 1048583, -1610612725, 1048584, -1610612725, 1048585, -1610612725, 1048586, -1610612725, 1048587, -1610612725, 1048588, 1610612744, 1048592, 8, 1048593, -1610612725, 1048594, -1610612725, 1048595, -1610612725, 1048596, -1610612725, 1048597, -1610612725, 1048598, -1610612725, 1048599, -1610612725, 1048600, -1610612725, 1048601, -1610612725, 1048602, -1610612725, 1048603, -1610612725, 1048604, -1610612725, 1048605, -1610612725 )

[node name="2-overground" type="TileMap" parent="."]

mode = 0
tile_set = ExtResource( 3 )
cell/size = Vector2( 64, 64 )
cell/quadrant_size = 16
cell/custom_transform = Matrix32( 1, 0, 0, 1, 0, 0 )
cell/half_offset = 2
cell/tile_origin = 0
cell/y_sort = false
collision/use_kinematic = false
collision/friction = 1.0
collision/bounce = 0.0
collision/layers = 1
collision/mask = 1
occluder/light_mask = 1
tile_data = IntArray( -4456448, 14, -4456447, 12, -4456446, 12, -4456445, 14, -4456444, 12, -4456443, 12, -4456442, 12, -4456441, 12, -4456440, 13, -4456439, 15, -4456438, 12, -4456437, 12, -4456431, 13, -4456430, 12, -4456429, 13, -4456428, 12, -4456427, 13, -4456426, 15, -4456425, 12, -4456424, 12, -4456423, 12, -4456422, 15, -4456421, 12, -4456420, 12, -4456419, 15, -4259830, -1610612714, -4259829, -2147483621, -4259828, -2147483626, -4194294, -536870890, -4194293, -1073741797, -4194292, -1073741802, -4063217, -1610612714, -4063216, -2147483626, -3997681, -536870890, -3997680, -1073741802, -3604457, -1610612714, -3604456, -2147483626, -3538921, -536870890, -3538920, -1073741802, -2818026, -1610612714, -2818025, -2147483621, -2818024, -2147483626, -2752490, -536870890, -2752489, -1073741797, -2752488, -1073741802, -2686970, -1610612714, -2686969, -2147483626, -2621434, -536870890, -2621433, -1073741802, -458729, -1610612714, -458728, -2147483621, -458727, -2147483626, -393193, -536870890, -393192, -1073741797, -393191, -1073741802, -327666, -1610612730, -327665, -1610612725, -327664, -1073741816, -262131, 1610612743, -262130, 1610612767, -262129, -1610612705, -262128, 1610612747, -196595, 6, -196594, -1610612705, -196593, -1610612705, -196592, 1610612747, -131058, -1610612729, -131057, -1073741813, -131056, 8, 458759, -1610612714, 458760, -2147483621, 458761, -2147483626, 458775, -1610612714, 458776, -2147483626, 524295, -536870890, 524296, -1073741797, 524297, -1073741802, 524311, -536870890, 524312, -1073741802, 589836, -1610612714, 589837, -2147483626, 655372, -536870890, 655373, -1073741802, 1048576, 31, 1048577, 31, 1048578, 31, 1048579, 31, 1048580, 31, 1048581, 31, 1048582, 31, 1048583, 31, 1048584, 31, 1048585, 31, 1048586, 31, 1048587, 31, 1048594, 1073741855, 1048595, 1073741855, 1048596, 31, 1048597, 31, 1048598, 31, 1048599, 31, 1048600, 31, 1048601, 31, 1048602, 31, 1048603, 31, 1048604, 31, 1048605, 31 )

[node name="player-spawn" parent="." instance=ExtResource( 4 )]

transform/pos = Vector2( 930, 1025 )

[node name="decorations" type="Node2D" parent="."]

[node name="forestbig" type="Sprite" parent="decorations"]

transform/pos = Vector2( 1433.07, -3501.55 )
texture = ExtResource( 5 )

[node name="mountain1" type="Sprite" parent="decorations"]

transform/pos = Vector2( 355.075, -3841.92 )
transform/rot = 28.7735
texture = ExtResource( 6 )

[node name="mountain4" type="Sprite" parent="decorations"]

transform/pos = Vector2( 392.719, -3613.27 )
transform/rot = 37.2105
texture = ExtResource( 6 )

[node name="mountain5" type="Sprite" parent="decorations"]

transform/pos = Vector2( 369.282, -4062.85 )
transform/rot = 15.416
texture = ExtResource( 6 )

[node name="forestbig 2" type="Sprite" parent="decorations"]

transform/pos = Vector2( 1598.33, -3493.1 )
texture = ExtResource( 5 )

[node name="forestsmall" type="Sprite" parent="decorations"]

transform/pos = Vector2( 1619.19, -3436.03 )
texture = ExtResource( 7 )

[node name="forestbig 2 2" type="Sprite" parent="decorations"]

transform/pos = Vector2( 1514.05, -3520.33 )
texture = ExtResource( 5 )

[node name="mountain2" type="Sprite" parent="decorations"]

transform/pos = Vector2( 1308.08, -1591.27 )
texture = ExtResource( 8 )

[node name="mountain2 2" type="Sprite" parent="decorations"]

transform/pos = Vector2( 865.944, -213.14 )
texture = ExtResource( 8 )

[node name="mountain3" type="Sprite" parent="decorations"]

transform/pos = Vector2( 944.589, 28.8093 )
texture = ExtResource( 9 )

[node name="forestsmall 2" type="Sprite" parent="decorations"]

transform/pos = Vector2( 1066.94, -2498.53 )
texture = ExtResource( 7 )

[node name="forestsmall 3" type="Sprite" parent="decorations"]

transform/pos = Vector2( 939.9, -2551.44 )
texture = ExtResource( 7 )

[node name="forestsmall 4" type="Sprite" parent="decorations"]

transform/pos = Vector2( 803.287, -2521.05 )
texture = ExtResource( 7 )

[node name="forestsmall 5" type="Sprite" parent="decorations"]

transform/pos = Vector2( 947.49, -2437.56 )
texture = ExtResource( 7 )

[node name="forestbig 3" type="Sprite" parent="decorations"]

transform/pos = Vector2( 494.611, -3481.55 )
texture = ExtResource( 5 )

[node name="forestsmall 6" type="Sprite" parent="decorations"]

transform/pos = Vector2( 432.042, -3750.35 )
texture = ExtResource( 7 )

[node name="forestbig 4" type="Sprite" parent="decorations"]

transform/pos = Vector2( 970.586, -294.252 )
texture = ExtResource( 5 )

[node name="forestbig 5" type="Sprite" parent="decorations"]

transform/pos = Vector2( 1050.28, -252.509 )
texture = ExtResource( 5 )

[node name="forestsmall 7" type="Sprite" parent="decorations"]

transform/pos = Vector2( 799.82, 35.896 )
texture = ExtResource( 7 )

[node name="forestsmall 8" type="Sprite" parent="decorations"]

transform/pos = Vector2( 1073.05, 1.74275 )
texture = ExtResource( 7 )

[node name="forestsmall 9" type="Sprite" parent="decorations"]

transform/pos = Vector2( 951.612, 164.919 )
texture = ExtResource( 7 )

[node name="forestsmall 10" type="Sprite" parent="decorations"]

transform/pos = Vector2( 1145.15, -446.044 )
texture = ExtResource( 7 )

[node name="forestsmall 11" type="Sprite" parent="decorations"]

transform/pos = Vector2( 864.332, -404.302 )
texture = ExtResource( 7 )

[node name="forestbig 6" type="Sprite" parent="decorations"]

transform/pos = Vector2( 1915.49, -609.221 )
texture = ExtResource( 5 )

[node name="forestbig 7" type="Sprite" parent="decorations"]

transform/pos = Vector2( 1923.08, -400.507 )
texture = ExtResource( 5 )

[node name="forestbig 8" type="Sprite" parent="decorations"]

transform/pos = Vector2( 1949.65, -514.351 )
texture = ExtResource( 5 )

[node name="forestbig 9" type="Sprite" parent="decorations"]

transform/pos = Vector2( 1888.93, -313.226 )
texture = ExtResource( 5 )

[node name="forestbig 10" type="Sprite" parent="decorations"]

transform/pos = Vector2( 1953.44, -260.099 )
texture = ExtResource( 5 )

[node name="enemies" type="Node2D" parent="."]

[node name="ship" parent="enemies" instance=ExtResource( 10 )]

transform/pos = Vector2( 1183.61, 366.921 )
willMove = true

[node name="ship12" parent="enemies" instance=ExtResource( 10 )]

transform/pos = Vector2( 1512.31, -163.597 )
willMove = true

[node name="ship7" parent="enemies" instance=ExtResource( 10 )]

transform/pos = Vector2( 643.109, -3731.34 )
willMove = true

[node name="helicopter" parent="enemies" instance=ExtResource( 11 )]

transform/pos = Vector2( 973.345, -937.317 )
willMove = true
velocity = 150

[node name="helicopter5" parent="enemies" instance=ExtResource( 11 )]

transform/pos = Vector2( 944.129, -4226.06 )

[node name="ship 2" parent="enemies" instance=ExtResource( 10 )]

transform/pos = Vector2( 579.757, -1823.38 )
willMove = true

[node name="ship 4" parent="enemies" instance=ExtResource( 10 )]

transform/pos = Vector2( 1352.99, -2919.86 )
willMove = true

[node name="helicopter 2" parent="enemies" instance=ExtResource( 11 )]

transform/pos = Vector2( 1067.84, -3283.61 )
willMove = true

[node name="bridge" parent="." instance=ExtResource( 12 )]

transform/pos = Vector2( 928, -4320 )

[node name="fuel" parent="." instance=ExtResource( 13 )]

transform/pos = Vector2( 1060.34, -2054.67 )

[node name="fuel2" parent="." instance=ExtResource( 13 )]

transform/pos = Vector2( 899, -3519 )

[node name="fuel1" parent="." instance=ExtResource( 13 )]

transform/pos = Vector2( 1507, 161 )


